('E:\\Reini_ADP_2017\\_repos\\enajinier\\MAYA\\mayafilecleaner\\dist\\mayaFileCleaner.exe',
 True,
 True,
 False,
 None,
 './resources/version.rc',
 False,
 False,
 u'<?xml version="1.0" encoding="UTF-8" standalone="yes"?><assembly manifestVersion="1.0" xmlns="urn:schemas-microsoft-com:asm.v1"><assemblyIdentity name="mayaFileCleaner_launch" processorArchitecture="x86" type="win32" version="1.0.0.0"/><dependency><dependentAssembly><assemblyIdentity name="Microsoft.VC90.CRT" processorArchitecture="x86" publicKeyToken="1fc8b3b9a1e18e3b" type="win32" version="9.0.21022.8"/><compatibility xmlns="urn:schemas-microsoft-com:compatibility.v1"/></dependentAssembly></dependency><compatibility xmlns="urn:schemas-microsoft-com:compatibility.v1"><application><supportedOS Id="{1f676c76-80e1-4239-95bb-83d0f6d0da78}"/><supportedOS Id="{4a2f28e3-53b9-4441-ba9c-d69d4a4a6e38}"/><supportedOS Id="{e2011457-1546-43c5-a5fe-008deee3d3f0}"/><supportedOS Id="{35138b9a-5d96-4fbd-8e2d-a2440225f93a}"/><supportedOS Id="{8e0f7a12-bfb3-4fe8-b9a5-48fd50a15a9a}"/></application></compatibility></assembly>',
 True,
 'mayaFileCleaner.pkg',
 [('PYZ-00.pyz',
   'E:\\Reini_ADP_2017\\_repos\\enajinier\\MAYA\\mayafilecleaner\\build\\mayaFileCleaner_launch\\PYZ-00.pyz',
   'PYZ'),
  ('struct', 'c:\\python27\\lib\\struct.pyc', 'PYMODULE'),
  ('pyimod01_os_path',
   'c:\\python27\\lib\\site-packages\\PyInstaller\\loader\\pyimod01_os_path.pyc',
   'PYMODULE'),
  ('pyimod02_archive',
   'c:\\python27\\lib\\site-packages\\PyInstaller\\loader\\pyimod02_archive.pyc',
   'PYMODULE'),
  ('pyimod03_importers',
   'c:\\python27\\lib\\site-packages\\PyInstaller\\loader\\pyimod03_importers.pyc',
   'PYMODULE'),
  ('pyiboot01_bootstrap',
   'c:\\python27\\lib\\site-packages\\PyInstaller\\loader\\pyiboot01_bootstrap.py',
   'PYSOURCE'),
  ('pyi_rth_qt4plugins',
   'c:\\python27\\lib\\site-packages\\PyInstaller\\loader\\rthooks\\pyi_rth_qt4plugins.py',
   'PYSOURCE'),
  ('mayaFileCleaner_launch',
   'E:\\Reini_ADP_2017\\_repos\\enajinier\\MAYA\\mayafilecleaner\\mayaFileCleaner_launch.py',
   'PYSOURCE'),
  (u'Microsoft.VC90.CRT.manifest',
   u'C:\\windows\\WinSxS\\Manifests\\x86_microsoft.vc90.crt_1fc8b3b9a1e18e3b_9.0.30729.8387_none_5094ca96bcb6b2bb.manifest',
   'BINARY'),
  (u'msvcr90.dll',
   u'C:\\windows\\WinSxS\\x86_microsoft.vc90.crt_1fc8b3b9a1e18e3b_9.0.30729.8387_none_5094ca96bcb6b2bb\\msvcr90.dll',
   'BINARY'),
  (u'msvcp90.dll',
   u'C:\\windows\\WinSxS\\x86_microsoft.vc90.crt_1fc8b3b9a1e18e3b_9.0.30729.8387_none_5094ca96bcb6b2bb\\msvcp90.dll',
   'BINARY'),
  (u'msvcm90.dll',
   u'C:\\windows\\WinSxS\\x86_microsoft.vc90.crt_1fc8b3b9a1e18e3b_9.0.30729.8387_none_5094ca96bcb6b2bb\\msvcm90.dll',
   'BINARY'),
  ('python27.dll', 'C:\\windows\\system32\\python27.dll', 'BINARY'),
  ('qt4_plugins\\imageformats\\qtga4.dll',
   'C:\\python27\\Lib\\site-packages\\PyQt4\\plugins\\imageformats\\qtga4.dll',
   'BINARY'),
  ('qt4_plugins\\codecs\\qtwcodecs4.dll',
   'C:\\python27\\Lib\\site-packages\\PyQt4\\plugins\\codecs\\qtwcodecs4.dll',
   'BINARY'),
  ('qt4_plugins\\codecs\\qcncodecs4.dll',
   'C:\\python27\\Lib\\site-packages\\PyQt4\\plugins\\codecs\\qcncodecs4.dll',
   'BINARY'),
  ('qt4_plugins\\imageformats\\qmng4.dll',
   'C:\\python27\\Lib\\site-packages\\PyQt4\\plugins\\imageformats\\qmng4.dll',
   'BINARY'),
  ('qt4_plugins\\imageformats\\qsvg4.dll',
   'C:\\python27\\Lib\\site-packages\\PyQt4\\plugins\\imageformats\\qsvg4.dll',
   'BINARY'),
  ('qt4_plugins\\iconengines\\qsvgicon4.dll',
   'C:\\python27\\Lib\\site-packages\\PyQt4\\plugins\\iconengines\\qsvgicon4.dll',
   'BINARY'),
  ('qt4_plugins\\accessible\\qtaccessiblewidgets4.dll',
   'C:\\python27\\Lib\\site-packages\\PyQt4\\plugins\\accessible\\qtaccessiblewidgets4.dll',
   'BINARY'),
  ('qt4_plugins\\codecs\\qkrcodecs4.dll',
   'C:\\python27\\Lib\\site-packages\\PyQt4\\plugins\\codecs\\qkrcodecs4.dll',
   'BINARY'),
  ('qt4_plugins\\imageformats\\qgif4.dll',
   'C:\\python27\\Lib\\site-packages\\PyQt4\\plugins\\imageformats\\qgif4.dll',
   'BINARY'),
  ('qt4_plugins\\imageformats\\qtiff4.dll',
   'C:\\python27\\Lib\\site-packages\\PyQt4\\plugins\\imageformats\\qtiff4.dll',
   'BINARY'),
  ('qt4_plugins\\imageformats\\qico4.dll',
   'C:\\python27\\Lib\\site-packages\\PyQt4\\plugins\\imageformats\\qico4.dll',
   'BINARY'),
  ('qt4_plugins\\imageformats\\qjpeg4.dll',
   'C:\\python27\\Lib\\site-packages\\PyQt4\\plugins\\imageformats\\qjpeg4.dll',
   'BINARY'),
  ('qt4_plugins\\graphicssystems\\qglgraphicssystem4.dll',
   'C:\\python27\\Lib\\site-packages\\PyQt4\\plugins\\graphicssystems\\qglgraphicssystem4.dll',
   'BINARY'),
  ('qt4_plugins\\codecs\\qjpcodecs4.dll',
   'C:\\python27\\Lib\\site-packages\\PyQt4\\plugins\\codecs\\qjpcodecs4.dll',
   'BINARY'),
  ('PyQt4.QtCore',
   'c:\\python27\\lib\\site-packages\\PyQt4\\QtCore.pyd',
   'EXTENSION'),
  ('unicodedata', 'c:\\python27\\DLLs\\unicodedata.pyd', 'EXTENSION'),
  ('bz2', 'c:\\python27\\DLLs\\bz2.pyd', 'EXTENSION'),
  ('PySide.QtUiTools',
   'c:\\python27\\lib\\site-packages\\PySide\\QtUiTools.pyd',
   'EXTENSION'),
  ('PySide.QtXml',
   'c:\\python27\\lib\\site-packages\\PySide\\QtXml.pyd',
   'EXTENSION'),
  ('PySide.QtNetwork',
   'c:\\python27\\lib\\site-packages\\PySide\\QtNetwork.pyd',
   'EXTENSION'),
  ('_ctypes', 'c:\\python27\\DLLs\\_ctypes.pyd', 'EXTENSION'),
  ('PySide.QtCore',
   'c:\\python27\\lib\\site-packages\\PySide\\QtCore.pyd',
   'EXTENSION'),
  ('PySide.QtGui',
   'c:\\python27\\lib\\site-packages\\PySide\\QtGui.pyd',
   'EXTENSION'),
  ('_hashlib', 'c:\\python27\\DLLs\\_hashlib.pyd', 'EXTENSION'),
  ('select', 'c:\\python27\\DLLs\\select.pyd', 'EXTENSION'),
  ('QtGui4.dll',
   'c:\\python27\\lib\\site-packages\\PySide\\QtGui4.dll',
   'BINARY'),
  ('QtCore4.dll',
   'c:\\python27\\lib\\site-packages\\PySide\\QtCore4.dll',
   'BINARY'),
  ('QtXml4.dll',
   'c:\\python27\\lib\\site-packages\\PySide\\QtXml4.dll',
   'BINARY'),
  ('QtSvg4.dll',
   'c:\\python27\\lib\\site-packages\\PySide\\QtSvg4.dll',
   'BINARY'),
  ('QtOpenGL4.dll',
   'c:\\python27\\lib\\site-packages\\PySide\\QtOpenGL4.dll',
   'BINARY'),
  ('pyside-python2.7.dll',
   'c:\\python27\\lib\\site-packages\\PySide\\pyside-python2.7.dll',
   'BINARY'),
  ('shiboken-python2.7.dll',
   'c:\\python27\\lib\\site-packages\\PySide\\shiboken-python2.7.dll',
   'BINARY'),
  ('QtNetwork4.dll',
   'c:\\python27\\lib\\site-packages\\PySide\\QtNetwork4.dll',
   'BINARY'),
  ('Include\\pyconfig.h', 'c:\\python27\\Include\\pyconfig.h', 'DATA'),
  ('./resources/ui/main_window.ui', './resources/ui/main_window.ui', 'DATA'),
  ('./packages/cleaning_operations/clean_unknown_nodes/operation.py',
   './packages/cleaning_operations/clean_unknown_nodes/operation.py',
   'DATA'),
  ('mayaFileCleaner.exe.manifest',
   'E:\\Reini_ADP_2017\\_repos\\enajinier\\MAYA\\mayafilecleaner\\build\\mayaFileCleaner_launch\\mayaFileCleaner_launch.exe.manifest',
   'BINARY'),
  ('pyi-windows-manifest-filename mayaFileCleaner.exe.manifest',
   '',
   'OPTION')],
 [],
 False,
 False,
 1616487099L,
 [('run_d.exe',
   'c:\\python27\\lib\\site-packages\\PyInstaller\\bootloader\\Windows-32bit\\run_d.exe',
   'EXECUTABLE')])
